<?xml version="1.0" encoding="UTF-8" ?>
<testsuite failures="0" time="7.834" errors="1" skipped="0" tests="1" name="com.mmpnc.rating.iso.algorithm.algorithmtest.CA.TestPublishCAAlgorithms">
  <properties>
    <property name="java.runtime.name" value="Java(TM) SE Runtime Environment"/>
    <property name="sun.boot.library.path" value="C:\Program Files\Java\jdk1.6.0_24\jre\bin"/>
    <property name="java.vm.version" value="19.1-b02"/>
    <property name="java.vm.vendor" value="Sun Microsystems Inc."/>
    <property name="java.vendor.url" value="http://java.sun.com/"/>
    <property name="path.separator" value=";"/>
    <property name="guice.disable.misplaced.annotation.check" value="true"/>
    <property name="java.vm.name" value="Java HotSpot(TM) 64-Bit Server VM"/>
    <property name="file.encoding.pkg" value="sun.io"/>
    <property name="user.country" value="IN"/>
    <property name="sun.java.launcher" value="SUN_STANDARD"/>
    <property name="sun.os.patch.level" value="Service Pack 1"/>
    <property name="java.vm.specification.name" value="Java Virtual Machine Specification"/>
    <property name="user.dir" value="D:\FILES-BY-SHAHSI\Latest-project-with-predicates\ISOAlgorithmRealign"/>
    <property name="java.runtime.version" value="1.6.0_24-b07"/>
    <property name="java.awt.graphicsenv" value="sun.awt.Win32GraphicsEnvironment"/>
    <property name="java.endorsed.dirs" value="C:\Program Files\Java\jdk1.6.0_24\jre\lib\endorsed"/>
    <property name="os.arch" value="amd64"/>
    <property name="java.io.tmpdir" value="C:\Users\NILKAN~1\AppData\Local\Temp\"/>
    <property name="line.separator" value="
"/>
    <property name="java.vm.specification.vendor" value="Sun Microsystems Inc."/>
    <property name="user.variant" value=""/>
    <property name="os.name" value="Windows 7"/>
    <property name="classworlds.conf" value="C:\Users\nilkanth9581\workspace\.metadata\.plugins\org.eclipse.m2e.core\launches\m2conf3932916779514572715.tmp"/>
    <property name="sun.jnu.encoding" value="Cp1252"/>
    <property name="java.library.path" value="C:\Program Files\Java\jdk1.6.0_24\bin;.;C:\Windows\Sun\Java\bin;C:\Windows\system32;C:\Windows;C:\Program Files\Java\jdk1.6.0_24\bin;%MAVEN_HOME%\bin;D:\apache-ant-1.8.1\bin;D:\groovy-1.8.6\bin;C:\Windows;C:\Windows\system32;C:\Program Files\Java\jdk1.6.0_24\bin;D:\apache-maven-3.0.5\bin;D:\apache-ant-1.8.1\bin;D:\groovy-1.8.6\bin;C:\Windows;C:\Windows\system32"/>
    <property name="java.specification.name" value="Java Platform API Specification"/>
    <property name="java.class.version" value="50.0"/>
    <property name="sun.management.compiler" value="HotSpot 64-Bit Server Compiler"/>
    <property name="os.version" value="6.1"/>
    <property name="user.home" value="C:\Users\nilkanth9581"/>
    <property name="user.timezone" value="Asia/Calcutta"/>
    <property name="java.awt.printerjob" value="sun.awt.windows.WPrinterJob"/>
    <property name="file.encoding" value="Cp1252"/>
    <property name="java.specification.version" value="1.6"/>
    <property name="user.name" value="nilkanth9581"/>
    <property name="java.class.path" value="/D:/Shared/eclipse/configuration/org.eclipse.osgi/bundles/761/1/.cp/jars/plexus-classworlds-2.4.jar"/>
    <property name="java.vm.specification.version" value="1.0"/>
    <property name="sun.arch.data.model" value="64"/>
    <property name="java.home" value="C:\Program Files\Java\jdk1.6.0_24\jre"/>
    <property name="java.specification.vendor" value="Sun Microsystems Inc."/>
    <property name="user.language" value="en"/>
    <property name="awt.toolkit" value="sun.awt.windows.WToolkit"/>
    <property name="java.vm.info" value="mixed mode"/>
    <property name="java.version" value="1.6.0_24"/>
    <property name="java.ext.dirs" value="C:\Program Files\Java\jdk1.6.0_24\jre\lib\ext;C:\Windows\Sun\Java\lib\ext"/>
    <property name="sun.boot.class.path" value="C:\Program Files\Java\jdk1.6.0_24\jre\lib\resources.jar;C:\Program Files\Java\jdk1.6.0_24\jre\lib\rt.jar;C:\Program Files\Java\jdk1.6.0_24\jre\lib\sunrsasign.jar;C:\Program Files\Java\jdk1.6.0_24\jre\lib\jsse.jar;C:\Program Files\Java\jdk1.6.0_24\jre\lib\jce.jar;C:\Program Files\Java\jdk1.6.0_24\jre\lib\charsets.jar;C:\Program Files\Java\jdk1.6.0_24\jre\lib\modules\jdk.boot.jar;C:\Program Files\Java\jdk1.6.0_24\jre\classes"/>
    <property name="java.vendor" value="Sun Microsystems Inc."/>
    <property name="maven.home" value="D:\FILES-BY-SHAHSI\Latest-project-with-predicates\ISOAlgorithmRealign\EMBEDDED"/>
    <property name="file.separator" value="\"/>
    <property name="java.vendor.url.bug" value="http://java.sun.com/cgi-bin/bugreport.cgi"/>
    <property name="sun.cpu.endian" value="little"/>
    <property name="sun.io.unicode.encoding" value="UnicodeLittle"/>
    <property name="sun.desktop" value="windows"/>
    <property name="sun.cpu.isalist" value="amd64"/>
  </properties>
  <testcase time="7.788" classname="com.mmpnc.rating.iso.algorithm.algorithmtest.CA.TestPublishCAAlgorithms" name="testISoConForCA">
    <error type="java.lang.NullPointerException">java.lang.NullPointerException
	at com.mmpnc.rating.iso.algorithm.correction.CorrectionAccordingToExecutionFlow.getPCHFromScopeAndAddTonewScope(CorrectionAccordingToExecutionFlow.java:592)
	at com.mmpnc.rating.iso.algorithm.correction.CorrectionAccordingToExecutionFlow.splitScopeUsingFlowChart(CorrectionAccordingToExecutionFlow.java:513)
	at com.mmpnc.rating.iso.algorithm.correction.CorrectionAccordingToExecutionFlow.readScope(CorrectionAccordingToExecutionFlow.java:650)
	at com.mmpnc.rating.iso.algorithm.correction.CorrectionAccordingToExecutionFlow.readReference(CorrectionAccordingToExecutionFlow.java:186)
	at com.mmpnc.rating.iso.algorithm.correction.CorrectionAccordingToExecutionFlow.rearrageLOBUsingFlowChart(CorrectionAccordingToExecutionFlow.java:155)
	at com.mmpnc.rating.iso.algorithm.correction.AlgorithmObjectCorrector.&lt;init&gt;(AlgorithmObjectCorrector.java:42)
	at com.mmpnc.rating.iso.algorithm.xml.AlgorithmXMLProcessor.&lt;init&gt;(AlgorithmXMLProcessor.java:52)
	at com.mmpnc.rating.iso.wrapper.ISOConsuptionWrapper.&lt;init&gt;(ISOConsuptionWrapper.java:34)
	at com.mmpnc.rating.iso.algorithm.algorithmtest.TestHelper.&lt;init&gt;(TestHelper.java:22)
	at com.mmpnc.rating.iso.algorithm.algorithmtest.CA.TestPublishCAAlgorithms.testISoConForCA(TestPublishCAAlgorithms.java:87)
	at sun.reflect.NativeMethodAccessorImpl.invoke0(Native Method)
	at sun.reflect.NativeMethodAccessorImpl.invoke(NativeMethodAccessorImpl.java:39)
	at sun.reflect.DelegatingMethodAccessorImpl.invoke(DelegatingMethodAccessorImpl.java:25)
	at java.lang.reflect.Method.invoke(Method.java:597)
	at org.junit.runners.model.FrameworkMethod$1.runReflectiveCall(FrameworkMethod.java:44)
	at org.junit.internal.runners.model.ReflectiveCallable.run(ReflectiveCallable.java:15)
	at org.junit.runners.model.FrameworkMethod.invokeExplosively(FrameworkMethod.java:41)
	at org.junit.internal.runners.statements.InvokeMethod.evaluate(InvokeMethod.java:20)
	at org.junit.internal.runners.statements.RunBefores.evaluate(RunBefores.java:28)
	at org.junit.internal.runners.statements.RunAfters.evaluate(RunAfters.java:31)
	at org.junit.runners.BlockJUnit4ClassRunner.runChild(BlockJUnit4ClassRunner.java:70)
	at org.junit.runners.BlockJUnit4ClassRunner.runChild(BlockJUnit4ClassRunner.java:44)
	at org.junit.runners.ParentRunner.runChildren(ParentRunner.java:180)
	at org.junit.runners.ParentRunner.access$000(ParentRunner.java:41)
	at org.junit.runners.ParentRunner$1.evaluate(ParentRunner.java:173)
	at org.junit.internal.runners.statements.RunBefores.evaluate(RunBefores.java:28)
	at org.junit.internal.runners.statements.RunAfters.evaluate(RunAfters.java:31)
	at org.junit.runners.ParentRunner.run(ParentRunner.java:220)
	at org.apache.maven.surefire.junit4.JUnit4TestSet.execute(JUnit4TestSet.java:53)
	at org.apache.maven.surefire.junit4.JUnit4Provider.executeTestSet(JUnit4Provider.java:123)
	at org.apache.maven.surefire.junit4.JUnit4Provider.invoke(JUnit4Provider.java:104)
	at sun.reflect.NativeMethodAccessorImpl.invoke0(Native Method)
	at sun.reflect.NativeMethodAccessorImpl.invoke(NativeMethodAccessorImpl.java:39)
	at sun.reflect.DelegatingMethodAccessorImpl.invoke(DelegatingMethodAccessorImpl.java:25)
	at java.lang.reflect.Method.invoke(Method.java:597)
	at org.apache.maven.surefire.util.ReflectionUtils.invokeMethodWithArray(ReflectionUtils.java:164)
	at org.apache.maven.surefire.booter.ProviderFactory$ProviderProxy.invoke(ProviderFactory.java:110)
	at org.apache.maven.surefire.booter.SurefireStarter.invokeProvider(SurefireStarter.java:175)
	at org.apache.maven.surefire.booter.SurefireStarter.runSuitesInProcessWhenForked(SurefireStarter.java:107)
	at org.apache.maven.surefire.booter.ForkedBooter.main(ForkedBooter.java:68)
</error>
    <system-out>************************* Starting Rearranging LOB using FlowChart ************
SPLIT FOR ALGORITHM =[CommercialAuto] NUMBER OF NEW ALGORITHMS CREATED =[4]
NO REFERENCE FOR PCH WITH NAME=[LCMLiability] IN ALGORITHM=[ CommercialAuto]
NO REFERENCE FOR PCH WITH NAME=[TotalLiabilityPremium] IN ALGORITHM=[ CommercialAuto]
NO REFERENCE FOR PCH WITH NAME=[UninsuredMotoristFirstVehicleIndicator] IN ALGORITHM=[ CommercialAuto]
NO REFERENCE FOR PCH WITH NAME=[TotalUnderinsuredMotoristPremium] IN ALGORITHM=[ CommercialAuto]
NO REFERENCE FOR PCH WITH NAME=[GetTotalLiabilityModificationFactor] IN ALGORITHM=[ CommercialAuto]
NO REFERENCE FOR PCH WITH NAME=[UnderinsuredMotoristFirstVehicleIndicator] IN ALGORITHM=[ CommercialAuto]
NO REFERENCE FOR PCH WITH NAME=[TotalLiabilityCoveragePremium] IN ALGORITHM=[ CommercialAuto]
NO REFERENCE FOR PCH WITH NAME=[LCMPhysicalDamage] IN ALGORITHM=[ CommercialAuto]
NO REFERENCE FOR PCH WITH NAME=[TotalAdditionalPIPCoveragePremium] IN ALGORITHM=[ CommercialAuto]
NO REFERENCE FOR PCH WITH NAME=[TotalPIPPremium] IN ALGORITHM=[ CommercialAuto]
NO REFERENCE FOR PCH WITH NAME=[totalUMGaragePlates] IN ALGORITHM=[ CommercialAuto]
NO REFERENCE FOR PCH WITH NAME=[HighestLiabilityBaseTerritory] IN ALGORITHM=[ CommercialAuto]
NO REFERENCE FOR PCH WITH NAME=[TotalOtherThanCollisionPremium] IN ALGORITHM=[ CommercialAuto]
NO REFERENCE FOR PCH WITH NAME=[TotalTowingCoveragePremium] IN ALGORITHM=[ CommercialAuto]
NO REFERENCE FOR PCH WITH NAME=[HighestPrivatePassengerLiabilityPremium] IN ALGORITHM=[ CommercialAuto]
NO REFERENCE FOR PCH WITH NAME=[AddedPIPVehicleCount] IN ALGORITHM=[ CommercialAuto]
NO REFERENCE FOR PCH WITH NAME=[HighestLiabilityPremium] IN ALGORITHM=[ CommercialAuto]
NO REFERENCE FOR PCH WITH NAME=[TotalCollisionPremium] IN ALGORITHM=[ CommercialAuto]
NO REFERENCE FOR PCH WITH NAME=[TotalMedicalPaymentsPremium] IN ALGORITHM=[ CommercialAuto]
NO REFERENCE FOR PCH WITH NAME=[HighestLiabilityPremiumForExperience] IN ALGORITHM=[ CommercialAuto]
NO REFERENCE FOR PCH WITH NAME=[PrivatePassengerVehicleCount] IN ALGORITHM=[ CommercialAuto]
NO REFERENCE FOR PCH WITH NAME=[TotalOTCCompPremium] IN ALGORITHM=[ CommercialAuto]
NO REFERENCE FOR PCH WITH NAME=[physicalDamageExpenseVariationFactor] IN ALGORITHM=[ CommercialAuto]
NO REFERENCE FOR PCH WITH NAME=[CollisionFleetFactor] IN ALGORITHM=[ CommercialAuto]
NO REFERENCE FOR PCH WITH NAME=[ExperienceBusinessStartDate] IN ALGORITHM=[ CommercialAuto]
NO REFERENCE FOR PCH WITH NAME=[TotalOTCSpecifiedPremium] IN ALGORITHM=[ CommercialAuto]
NO REFERENCE FOR PCH WITH NAME=[totalUIMGaragePlates] IN ALGORITHM=[ CommercialAuto]
NO REFERENCE FOR PCH WITH NAME=[GetTotalPhysicalDamageModificationFactor] IN ALGORITHM=[ CommercialAuto]
NO REFERENCE FOR PCH WITH NAME=[PrivatePassengerVehicleIndicator] IN ALGORITHM=[ CommercialAuto]
NO REFERENCE FOR PCH WITH NAME=[TotalUninsuredMotoristPremium] IN ALGORITHM=[ CommercialAuto]
NO REFERENCE FOR PCH WITH NAME=[PIPExclusionOfIncomeBenefitsCount] IN ALGORITHM=[ CommercialAuto]
NO REFERENCE FOR PCH WITH NAME=[liabilityExpenseVariationFactor] IN ALGORITHM=[ CommercialAuto]
NO REFERENCE FOR PCH WITH NAME=[CPPIRPMFactor] IN ALGORITHM=[ CommercialAuto]
NO REFERENCE FOR PCH WITH NAME=[HighestLiabilityBasePremium] IN ALGORITHM=[ CommercialAuto]
SPLIT FOR ALGORITHM =[CommercialAutoVehicleCollisionCoverage] NUMBER OF NEW ALGORITHMS CREATED =[7]
SPLIT FOR ALGORITHM =[CommercialAutoVehicleOtherThanCollisionCoverage] NUMBER OF NEW ALGORITHMS CREATED =[7]
SPLIT FOR ALGORITHM =[CommercialAutoLessorAdditionalInsuredAndLossPayee] NUMBER OF NEW ALGORITHMS CREATED =[5]
</system-out>
  </testcase>
</testsuite>